<?xml version="1.0" standalone="no"?>
<!DOCTYPE svg PUBLIC "-//W3C//DTD SVG 20010904//EN"
 "http://www.w3.org/TR/2001/REC-SVG-20010904/DTD/svg10.dtd">
<svg version="1.0" xmlns="http://www.w3.org/2000/svg"
 width="512.000000pt" height="512.000000pt" viewBox="0 0 512.000000 512.000000"
 preserveAspectRatio="xMidYMid meet">
<metadata>
Created by potrace 1.11, written by Peter Selinger 2001-2013
</metadata>
<g transform="translate(0.000000,512.000000) scale(0.100000,-0.100000)"
fill="#000000" stroke="none">
<path d="M3100 4780 c-426 -79 -768 -376 -906 -787 -96 -287 -73 -613 64 -888
35 -71 127 -210 163 -246 10 -10 19 -25 20 -31 0 -7 1 -47 2 -89 l2 -76 -55
-2 c-30 -1 -73 -4 -95 -6 -72 -6 -163 -16 -182 -19 -10 -2 -38 -7 -63 -11 -25
-3 -57 -9 -73 -11 -46 -7 -169 -34 -232 -50 -33 -9 -67 -17 -75 -19 -32 -7
-228 -75 -289 -100 -53 -22 -81 -27 -160 -28 -85 -1 -196 9 -212 19 -3 2 -21
6 -40 9 -140 24 -464 177 -644 304 -27 19 -78 55 -112 79 -34 24 -77 45 -95
48 -41 6 -94 -25 -109 -62 -13 -36 -2 -145 36 -359 33 -189 112 -463 166 -582
10 -24 19 -49 19 -57 0 -8 5 -18 10 -21 6 -3 10 -13 10 -20 0 -18 86 -198 135
-285 21 -36 46 -80 57 -99 70 -123 211 -301 330 -418 45 -45 119 -119 163
-164 185 -188 413 -304 770 -393 55 -13 134 -30 175 -36 41 -7 82 -14 90 -15
8 -2 47 -6 85 -10 39 -4 79 -9 90 -11 123 -24 874 -24 1002 0 10 2 47 7 83 11
36 4 95 13 132 21 37 7 82 16 100 19 46 8 214 59 275 84 489 194 730 577 738
1171 3 267 -53 426 -231 645 -40 50 -81 99 -92 111 -45 48 -192 227 -192 235
0 4 30 33 68 62 101 82 218 211 267 294 l19 33 181 -5 c171 -5 213 -7 330 -21
107 -13 123 -12 154 7 56 34 63 99 22 191 -11 24 -34 78 -51 120 -36 91 -44
62 80 274 89 151 100 188 74 233 -29 49 -87 63 -164 41 -19 -6 -46 -13 -60
-15 -14 -3 -70 -15 -125 -28 -65 -14 -133 -22 -194 -22 l-94 0 -13 65 c-67
330 -302 637 -611 798 -83 43 -239 99 -303 108 -19 3 -42 8 -50 11 -39 14
-298 10 -390 -7z"/>
</g>
</svg>
